Carlow,IE,Ireland
Cavan,IE,Ireland
Clare,IE,Ireland
Cork,IE,Ireland
Donegal,IE,Ireland
Dublin,IE,Ireland
Galway,IE,Ireland
Kerry,IE,Ireland
Kildare,IE,Ireland
Kilkenny,IE,Ireland
Laois,IE,Ireland
Leitrim,IE,Ireland
Limerick,IE,Ireland
Longford,IE,Ireland
Louth,IE,Ireland
Mayo,IE,Ireland
Meath,IE,Ireland
Monaghan,IE,Ireland
Offaly,IE,Ireland
Roscommon,IE,Ireland
Sligo,IE,Ireland
Tipperary,IE,Ireland
Waterford,IE,Ireland
Westmeath,IE,Ireland
Wexford,IE,Ireland
Wicklow,IE,Ireland
